%YAML 1.1
%TAG !u! tag:unity3d.com,2011:
--- !u!74 &7400000
AnimationClip:
  m_ObjectHideFlags: 0
  m_PrefabParentObject: {fileID: 0}
  m_PrefabInternal: {fileID: 0}
  m_Name: kaidaIdleR
  serializedVersion: 6
  m_Legacy: 0
  m_Compressed: 0
  m_UseHighQualityCurve: 1
  m_RotationCurves: []
  m_CompressedRotationCurves: []
  m_EulerCurves: []
  m_PositionCurves: []
  m_ScaleCurves: []
  m_FloatCurves: []
  m_PPtrCurves:
  - curve:
    - time: 0
      value: {fileID: 21300438, guid: dea2a792c9c832241a88e12773f8f7e4, type: 3}
    - time: 0.083333336
      value: {fileID: 21300440, guid: dea2a792c9c832241a88e12773f8f7e4, type: 3}
    - time: 0.16666667
      value: {fileID: 21300442, guid: dea2a792c9c832241a88e12773f8f7e4, type: 3}
    - time: 0.25
      value: {fileID: 21300444, guid: dea2a792c9c832241a88e12773f8f7e4, type: 3}
    - time: 0.33333334
      value: {fileID: 21300446, guid: dea2a792c9c832241a88e12773f8f7e4, type: 3}
    - time: 0.41666666
      value: {fileID: 21300448, guid: dea2a792c9c832241a88e12773f8f7e4, type: 3}
    - time: 0.5
      value: {fileID: 21300450, guid: dea2a792c9c832241a88e12773f8f7e4, type: 3}
    - time: 0.5833333
      value: {fileID: 21300452, guid: dea2a792c9c832241a88e12773f8f7e4, type: 3}
    - time: 0.6666667
      value: {fileID: 21300454, guid: dea2a792c9c832241a88e12773f8f7e4, type: 3}
    - time: 0.75
      value: {fileID: 21300456, guid: dea2a792c9c832241a88e12773f8f7e4, type: 3}
    - time: 0.8333333
      value: {fileID: 21300458, guid: dea2a792c9c832241a88e12773f8f7e4, type: 3}
    - time: 0.9166667
      value: {fileID: 21300460, guid: dea2a792c9c832241a88e12773f8f7e4, type: 3}
    - time: 1
      value: {fileID: 21300462, guid: dea2a792c9c832241a88e12773f8f7e4, type: 3}
    - time: 1.0833334
      value: {fileID: 21300464, guid: dea2a792c9c832241a88e12773f8f7e4, type: 3}
    - time: 1.1666666
      value: {fileID: 21300466, guid: dea2a792c9c832241a88e12773f8f7e4, type: 3}
    - time: 1.25
      value: {fileID: 21300468, guid: dea2a792c9c832241a88e12773f8f7e4, type: 3}
    - time: 1.3333334
      value: {fileID: 21300470, guid: dea2a792c9c832241a88e12773f8f7e4, type: 3}
    - time: 1.4166666
      value: {fileID: 21300472, guid: dea2a792c9c832241a88e12773f8f7e4, type: 3}
    - time: 1.5
      value: {fileID: 21300474, guid: dea2a792c9c832241a88e12773f8f7e4, type: 3}
    - time: 1.5833334
      value: {fileID: 21300476, guid: dea2a792c9c832241a88e12773f8f7e4, type: 3}
    - time: 1.6666666
      value: {fileID: 21300478, guid: dea2a792c9c832241a88e12773f8f7e4, type: 3}
    - time: 1.75
      value: {fileID: 21300480, guid: dea2a792c9c832241a88e12773f8f7e4, type: 3}
    - time: 1.8333334
      value: {fileID: 21300482, guid: dea2a792c9c832241a88e12773f8f7e4, type: 3}
    - time: 1.9166666
      value: {fileID: 21300484, guid: dea2a792c9c832241a88e12773f8f7e4, type: 3}
    - time: 2
      value: {fileID: 21300486, guid: dea2a792c9c832241a88e12773f8f7e4, type: 3}
    - time: 2.0833333
      value: {fileID: 21300488, guid: dea2a792c9c832241a88e12773f8f7e4, type: 3}
    - time: 2.1666667
      value: {fileID: 21300490, guid: dea2a792c9c832241a88e12773f8f7e4, type: 3}
    - time: 2.25
      value: {fileID: 21300492, guid: dea2a792c9c832241a88e12773f8f7e4, type: 3}
    - time: 2.3333333
      value: {fileID: 21300494, guid: dea2a792c9c832241a88e12773f8f7e4, type: 3}
    - time: 2.4166667
      value: {fileID: 21300496, guid: dea2a792c9c832241a88e12773f8f7e4, type: 3}
    attribute: m_Sprite
    path: 
    classID: 212
    script: {fileID: 0}
  m_SampleRate: 12
  m_WrapMode: 0
  m_Bounds:
    m_Center: {x: 0, y: 0, z: 0}
    m_Extent: {x: 0, y: 0, z: 0}
  m_ClipBindingConstant:
    genericBindings:
    - path: 0
      attribute: 0
      script: {fileID: 0}
      classID: 212
      customType: 23
      isPPtrCurve: 1
    pptrCurveMapping:
    - {fileID: 21300438, guid: dea2a792c9c832241a88e12773f8f7e4, type: 3}
    - {fileID: 21300440, guid: dea2a792c9c832241a88e12773f8f7e4, type: 3}
    - {fileID: 21300442, guid: dea2a792c9c832241a88e12773f8f7e4, type: 3}
    - {fileID: 21300444, guid: dea2a792c9c832241a88e12773f8f7e4, type: 3}
    - {fileID: 21300446, guid: dea2a792c9c832241a88e12773f8f7e4, type: 3}
    - {fileID: 21300448, guid: dea2a792c9c832241a88e12773f8f7e4, type: 3}
    - {fileID: 21300450, guid: dea2a792c9c832241a88e12773f8f7e4, type: 3}
    - {fileID: 21300452, guid: dea2a792c9c832241a88e12773f8f7e4, type: 3}
    - {fileID: 21300454, guid: dea2a792c9c832241a88e12773f8f7e4, type: 3}
    - {fileID: 21300456, guid: dea2a792c9c832241a88e12773f8f7e4, type: 3}
    - {fileID: 21300458, guid: dea2a792c9c832241a88e12773f8f7e4, type: 3}
    - {fileID: 21300460, guid: dea2a792c9c832241a88e12773f8f7e4, type: 3}
    - {fileID: 21300462, guid: dea2a792c9c832241a88e12773f8f7e4, type: 3}
    - {fileID: 21300464, guid: dea2a792c9c832241a88e12773f8f7e4, type: 3}
    - {fileID: 21300466, guid: dea2a792c9c832241a88e12773f8f7e4, type: 3}
    - {fileID: 21300468, guid: dea2a792c9c832241a88e12773f8f7e4, type: 3}
    - {fileID: 21300470, guid: dea2a792c9c832241a88e12773f8f7e4, type: 3}
    - {fileID: 21300472, guid: dea2a792c9c832241a88e12773f8f7e4, type: 3}
    - {fileID: 21300474, guid: dea2a792c9c832241a88e12773f8f7e4, type: 3}
    - {fileID: 21300476, guid: dea2a792c9c832241a88e12773f8f7e4, type: 3}
    - {fileID: 21300478, guid: dea2a792c9c832241a88e12773f8f7e4, type: 3}
    - {fileID: 21300480, guid: dea2a792c9c832241a88e12773f8f7e4, type: 3}
    - {fileID: 21300482, guid: dea2a792c9c832241a88e12773f8f7e4, type: 3}
    - {fileID: 21300484, guid: dea2a792c9c832241a88e12773f8f7e4, type: 3}
    - {fileID: 21300486, guid: dea2a792c9c832241a88e12773f8f7e4, type: 3}
    - {fileID: 21300488, guid: dea2a792c9c832241a88e12773f8f7e4, type: 3}
    - {fileID: 21300490, guid: dea2a792c9c832241a88e12773f8f7e4, type: 3}
    - {fileID: 21300492, guid: dea2a792c9c832241a88e12773f8f7e4, type: 3}
    - {fileID: 21300494, guid: dea2a792c9c832241a88e12773f8f7e4, type: 3}
    - {fileID: 21300496, guid: dea2a792c9c832241a88e12773f8f7e4, type: 3}
  m_AnimationClipSettings:
    serializedVersion: 2
    m_AdditiveReferencePoseClip: {fileID: 0}
    m_AdditiveReferencePoseTime: 0
    m_StartTime: 0
    m_StopTime: 2.5
    m_OrientationOffsetY: 0
    m_Level: 0
    m_CycleOffset: 0
    m_HasAdditiveReferencePose: 0
    m_LoopTime: 1
    m_LoopBlend: 0
    m_LoopBlendOrientation: 0
    m_LoopBlendPositionY: 0
    m_LoopBlendPositionXZ: 0
    m_KeepOriginalOrientation: 0
    m_KeepOriginalPositionY: 1
    m_KeepOriginalPositionXZ: 0
    m_HeightFromFeet: 0
    m_Mirror: 0
  m_EditorCurves: []
  m_EulerEditorCurves: []
  m_HasGenericRootTransform: 0
  m_HasMotionFloatCurves: 0
  m_GenerateMotionCurves: 0
  m_Events: []
